In-Class Exercise 5: Preparation for VAST Mini Mini-Challenge 1 2025 – <i class='bi bi-file-bar-graph'></i> ISSS608-VAA
…
Creating knowledge graph

Step 1: Mapping from node it to row index

id_map <- tibble(id = nodes_tbl$id,
                index = seq_len(
                  nrow(nodes_tbl)))
id_map

# A tibble: 17,412 × 2
      id index
   <int> <int>
 1     0     1
 2     1     2
 3     2     3
 4     3     4
 5     4     5
 6     5     6
 7     6     7
 8     7     8
 9     8     9
10     9    10
# ℹ 17,402 more rows

This ensures each id from your node list is mapped to the correct row number

Step 2: Map source and target IDs to row indices

edges_tbl <- edges_tbl %>%
  left_join(id_map, by = c("source" = "id")) %>%
  rename(from = index) %>%
  left_join(id_map, by = c("target" = "id")) %>%
  rename(to = index)

edges_tbl

# A tibble: 37,857 × 6
   `Edge Type`      source target   key  from    to
   <chr>             <int>  <int> <int> <int> <int>
 1 InterpolatesFrom      0   1841     0     1  1842
 2 RecordedBy            0      4     0     1     5
 3 PerformerOf           1      0     0     2     1
 4 ComposerOf            1  16180     0     2 16181
 5 PerformerOf           2      0     0     3     1
 6 ProducerOf            2  16180     0     3 16181
 7 PerformerOf           3      0     0     4     1
 8 InterpolatesFrom      5   5088     0     6  5089
 9 InStyleOf             5  14332     0     6 14333
10 InterpolatesFrom      5  11677     0     6 11678
# ℹ 37,847 more rows
…
