Take-Home Exercise 1-1: Demographic Structures and Distribution of Singapore in 2024 – <i class='bi bi-file-bar-graph'></i> ISSS608-VAA
…
Reflections

I initially avoided expanding the data into individual-level observations using uncount(weights = Pop), since it is possible to pass weights = Pop in aes(). However, the resulting violin plot (below) looked weird. Therefore, I tried the uncount() method and found that these 2 methods produces very different plots. Upon further research, I found that while geom_violin() can estimate the probability density function (PDF) using the weights, density estimation with weights may be less precise or behave unexpectedly depending on implementation. Therefore, I chose to use uncount() in the final plot above, as working with raw, individual-level distributions seems to produce more accurate and visually realistic results.

Feature Engineering

Code

demography_sex_age_2 <- sg_data %>%
  group_by(Age, Sex) %>%
  summarise(Pop = sum(Pop))

demography_sex_age_2

# A tibble: 182 × 3
# Groups:   Age [91]
     Age Sex       Pop
   <dbl> <chr>   <dbl>
 1     0 Females 14370
 2     0 Males   15090
 3     1 Females 15580
 4     1 Males   16700
 5     2 Females 17190
 6     2 Males   17980
 7     3 Females 17340
 8     3 Males   18200
 9     4 Females 19070
10     4 Males   19880
# ℹ 172 more rows
…
