Take-home_Ex01: Demographic Structures and Distribution of Singapore in 2024 – ISSS608-VAA
…
I initially thought to flip through the different tabs to view the graphs separately but I realised I could prepare the data differently such that these 3 graphs can be stacked. This resulted in the final graph in Section 3.2: Percentage of Age Groups Across Planning Areas

4.2 Age Distribution by Sex

4.2.1 Feature Engineering

Code

demography_sex_age_2 <- sg_data %>%
  group_by(Age, Sex) %>%
  summarise(Pop = sum(Pop))

demography_sex_age_2

# A tibble: 182 × 3
# Groups:   Age [91]
     Age Sex       Pop
   <dbl> <chr>   <dbl>
 1     0 Females 14370
 2     0 Males   15090
 3     1 Females 15580
 4     1 Males   16700
 5     2 Females 17190
 6     2 Males   17980
 7     3 Females 17340
 8     3 Males   18200
 9     4 Females 19070
10     4 Males   19880
# ℹ 172 more rows
…
